/* XPM */
static const char * unlocked_xpm[] = {
"24 24 187 2",
"  	c None",
". 	c #0F0F0F",
"+ 	c #3C3C3C",
"@ 	c #717171",
"# 	c #777777",
"$ 	c #626262",
"% 	c #3B3B3B",
"& 	c #1E1E1E",
"* 	c #8F8F8F",
"= 	c #B3B3B3",
"- 	c #9D9D9D",
"; 	c #8A8A8A",
"> 	c #888888",
", 	c #8B8B8B",
"' 	c #5A5A5A",
") 	c #999999",
"! 	c #BDBDBD",
"~ 	c #969696",
"{ 	c #727272",
"] 	c #6A6A6A",
"^ 	c #6B6B6B",
"/ 	c #474747",
"( 	c #565656",
"_ 	c #CBCBCB",
": 	c #A4A4A4",
"< 	c #515151",
"[ 	c #646464",
"} 	c #686868",
"| 	c #676767",
"1 	c #666666",
"2 	c #606060",
"3 	c #575757",
"4 	c #262626",
"5 	c #989898",
"6 	c #BBBBBB",
"7 	c #555555",
"8 	c #3F3F3F",
"9 	c #404040",
"0 	c #0A0A0A",
"a 	c #7C7C7C",
"b 	c #303030",
"c 	c #C2C2C2",
"d 	c #ABABAB",
"e 	c #2E2E2E",
"f 	c #434343",
"g 	c #909090",
"h 	c #272727",
"i 	c #373737",
"j 	c #C5C5C5",
"k 	c #9F9F9F",
"l 	c #2D2D2D",
"m 	c #393939",
"n 	c #000000",
"o 	c #CCCCCC",
"p 	c #A5A5A5",
"q 	c #1A1A1A",
"r 	c #313131",
"s 	c #C1C1C1",
"t 	c #9E9E9E",
"u 	c #2C2C2C",
"v 	c #959595",
"w 	c #949494",
"x 	c #2A2A2A",
"y 	c #555330",
"z 	c #ACA85A",
"A 	c #B9B14F",
"B 	c #FAF397",
"C 	c #FAF3A5",
"D 	c #FAF4B1",
"E 	c #FAF398",
"F 	c #BCBCBC",
"G 	c #2B2B2B",
"H 	c #353535",
"I 	c #0B0B0B",
"J 	c #A08625",
"K 	c #EED41B",
"L 	c #E8D565",
"M 	c #874A00",
"N 	c #744000",
"O 	c #8F560D",
"P 	c #E5D39A",
"Q 	c #FFFCC7",
"R 	c #FFFCBD",
"S 	c #ADA8A3",
"T 	c #737251",
"U 	c #757332",
"V 	c #A38E1F",
"W 	c #F2CE1F",
"X 	c #E0B800",
"Y 	c #896A15",
"Z 	c #605123",
"` 	c #836A2F",
" .	c #EEE591",
"..	c #FFFBA6",
"+.	c #FFFBA2",
"@.	c #C1B26E",
"#.	c #8C8B6E",
"$.	c #636141",
"%.	c #B69A3D",
"&.	c #F6DB3E",
"*.	c #F6D317",
"=.	c #EFDA15",
"-.	c #F2DC61",
";.	c #F4DD74",
">.	c #F4D63C",
",.	c #F3CF23",
"'.	c #F0C924",
").	c #EEC223",
"!.	c #EBBC22",
"~.	c #DD9508",
"{.	c #D17B00",
"].	c #B96400",
"^.	c #E6A600",
"/.	c #F6E33D",
"(.	c #FDFCAB",
"_.	c #FFFDAB",
":.	c #FFEF32",
"<.	c #FCE100",
"[.	c #A99200",
"}.	c #5A4A00",
"|.	c #856700",
"1.	c #E5A700",
"2.	c #D78900",
"3.	c #CA7100",
"4.	c #FAE53F",
"5.	c #FFFFC2",
"6.	c #FFFDB2",
"7.	c #CDB800",
"8.	c #0B0600",
"9.	c #A07906",
"0.	c #DC9400",
"a.	c #CF7900",
"b.	c #FADF18",
"c.	c #FFFFD0",
"d.	c #FFFDB9",
"e.	c #030100",
"f.	c #1E1000",
"g.	c #9E7A0F",
"h.	c #DE9800",
"i.	c #D17C00",
"j.	c #A28817",
"k.	c #F4CF11",
"l.	c #FADC00",
"m.	c #FFFDD0",
"n.	c #FFFDC0",
"o.	c #7B6B00",
"p.	c #100900",
"q.	c #867420",
"r.	c #EEC21B",
"s.	c #DE9700",
"t.	c #D07900",
"u.	c #2F2300",
"v.	c #EEB900",
"w.	c #FFF9B5",
"x.	c #FFFDC6",
"y.	c #B9A000",
"z.	c #241400",
"A.	c #C5AC20",
"B.	c #E7AD00",
"C.	c #CB7100",
"D.	c #8D6C00",
"E.	c #F5CE00",
"F.	c #FFF58B",
"G.	c #FFFDC9",
"H.	c #D8BA00",
"I.	c #705600",
"J.	c #DABE10",
"K.	c #DE9A00",
"L.	c #CC7300",
"M.	c #BA6400",
"N.	c #C29800",
"O.	c #F6DA65",
"P.	c #FDF8B9",
"Q.	c #F6D400",
"R.	c #E9BC00",
"S.	c #CD8300",
"T.	c #C87200",
"U.	c #C97C00",
"V.	c #DB9D00",
"W.	c #AF8300",
"X.	c #866600",
"Y.	c #B18600",
"Z.	c #EDB706",
"`.	c #ECB300",
" +	c #BF9100",
".+	c #936F00",
"++	c #6B5100",
"                                                ",
"                                                ",
"                          . + @ # $ %           ",
"                        & * = - ; > , '         ",
"                      & ) ! ~ { ] ^ ] ] /       ",
"                      ( _ : < [ } | 1 2 3 4     ",
"                      5 6 7 8 9   0 a ^ 8 b     ",
"                      c d e f       d g h i     ",
"                      j k l m     n o p q r     ",
"                    n s t u i       v w q x     ",
"    y z A B C D D C E F t G H         H I       ",
"    J K L M N O P Q R S 5 q T U                 ",
"    V W X Y Z `  ...+.@.#.$.%.&.                ",
"    V *.=.-.;.>.,.'.).!.~.{.].^.                ",
"    V *./.(._.:.<.[.}.|.1.2.3.^.                ",
"    V *.4.5.6.:.7.n n 8.9.0.a.^.                ",
"    V *.b.c.d.:.7.n e.f.g.h.i.^.                ",
"    j.k.l.m.n.:.<.o.p.q.r.s.t.^.                ",
"    u.v.l.w.x.:.<.y.z.A.B.2.C.^.                ",
"      D.E.F.G.:.<.H.I.J.K.L.M.^.                ",
"        N.O.P.:.<.Q.R.S.T.U.V.W.                ",
"          X.Y.Z.`. +Y.Y..+X.++                  ",
"                                                ",
"                                                "};
